"001P","YR","01","","Religion Plan","125","400"
"003P","YR","01","","Math Plan","200","400"
"004P","YR","01","","Science Plan","315","400"
"005P","YR","01","","Soc Studies Plan","403","400"
"006P","YR","01","","English Plan","940","400"
"007P","YR","01","","Foreign Lan Plan","670","400"
"011P","YR","01","","Guidance Plan","931","400"
"015P","YR","01","","Academic Com.","125","400"
"111","YR","01","","Revelation 111","150","25"
"111","YR","02","","Revelation 111","150","25"
"111","YR","03","","Revelation 111","050","25"
"111","YR","04","","Revelation 111","150","25"
"111","YR","05","","Revelation 111","125","25"
"111","YR","06","","Revelation 111","150","25"
"111","YR","07","","Revelation 111","025","25"
"111","YR","08","","Revelation 111","650","25"
"111","YR","09","","Revelation 111","650","25"
"111","YR","10","","Revelation 111","250","25"
"111","YR","11","","Revelation 111","125","25"
"111","YR","12","","Revelation 111","143","25"
"111","YR","13","","Revelation 111","143","25"
"111","YR","14","","Revelation 111","143","25"
"111","YR","15","","Revelation 111","125","25"
"111","YR","16","","Revelation 111","177","25"
"111","YR","17","","Revelation 111","250","25"
"111Lec","YR","01","","Revelation 111Lec","125","350"
"111P","YR","01","","Revel 111 Plan","125","400"
"121","YR","01","","Jesus and Morality","120","26"
"121","YR","02","","Jesus and Morality","143","26"
"121","YR","03","","Jesus and Morality","143","26"
"121","YR","04","","Jesus and Morality","132","26"
"121","YR","05","","Jesus and Morality","132","26"
"121","YR","06","","Jesus and Morality","120","26"
"121","YR","07","","Jesus and Morality","143","26"
"121","YR","08","","Jesus and Morality","111","26"
"121","YR","09","","Jesus and Morality","132","26"
"121","YR","10","","Jesus and Morality","143","26"
"121","YR","11","","Jesus and Morality","111","26"
"121Lec","YR","01","","Jesus/Morality Lec","111","360"
"121P","YR","01","","J&M  Plan","111","400"
"123","YR","01","","Jesus/Morality 123","125","25"
"123","YR","02","","Jesus/Morality 123","125","25"
"123","YR","03","","Jesus/Morality 123","125","25"
"123Lec","YR","01","","Jesus Lec 123","125","100"
"131","YR","01","","Church/Mission 131","100","26"
"131","YR","02","","Church/Mission 131","100","26"
"131","YR","03","","Church/Mission 131","100","26"
"131","YR","04","","Church/Mission 131","132","26"
"131","YR","05","","Church/Mission 131","132","26"
"131","YR","06","","Church/Mission 131","178","26"
"131","YR","07","","Church/Mission 131","100","26"
"131","YR","08","","Church/Mission 131","177","26"
"131","YR","09","","Church/Mission 131","111","26"
"131","YR","10","","Church/Mission 131","177","26"
"131","YR","11","","Church/Mission 131","111","26"
"131","YR","12","","Church/Mission 131","132","26"
"131","YR","13","","Church/Mission 131","132","26"
"131","YR","14","","Church/Mission 131","111","26"
"131Lec","YR","01","","Church/Mission Lec","111","350"
"131P","YR","01","","CM 131 Plan","111","400"
"141P","YR","01","","Relation plan","150","400"
"151","YR","01","","Relate/Death 151","150","27"
"151","YR","02","","Relate/Death 151","150","27"
"151","YR","03","","Relate/Death 151","150","27"
"151Lec","YR","01","","Death Dying Lec","150","100"
"161","YR","01","","Relate/Prayer161","100","26"
"161","YR","02","","Relate/Prayer161","100","26"
"161","YR","03","","Relate/Prayer161","100","26"
"161","YR","04","","Relate/Prayer161","111","26"
"161","YR","05","","Relate/Prayer161","111","26"
"161Lec","YR","01","","Faith/Relation Lec","111","100"
"161P","YR","01","","F&P Plan","0","400"
"171","YR","01","","Relate/WRel 171","120","26"
"171","YR","02","","Relate/WRel 171","177","26"
"171","YR","03","","Relate/WRel 171","177","26"
"171","YR","04","","Relate/WRel 171","177","26"
"171","YR","05","","Relate/WRel 171","120","26"
"171","YR","06","","Relate/WRel 171","177","26"
"171Lec","YR","01","","Wrld Rel Lec 171","120","100"
"171P","YR","01","","WR Plan 171","0","400"
"211","YR","01","","Algebra I 211","255","26"
"211","YR","02","","Algebra I 211","255","26"
"211","YR","03","","Algebra I 211","230","26"
"211","YR","04","","Algebra I 211","255","26"
"211","YR","05","","Algebra I 211","230","26"
"211H","YR","01","","Honors Alg I","202","25"
"211H","YR","02","","Honors Alg I","202","25"
"211HLec","YR","01","","Hon Alg Lecture","202","60"
"211ALec","YR","01","","Alg I Lec 211A","230","100"
"211A","YR","01","","Algebra I 211A","230","26"
"211A","YR","02","","Algebra I 211A","230","26"
"211A","YR","03","","Algebra I 211A","230","26"
"211AT","YR","01","","211A Proc","202","400"
"211Lec","YR","01","","Alg. I Lec 211","255","300"
"211P","YR","01","","Alg. I Plan 211","255","400"
"213","YR","01","","Algebra I 213","255","26"
"213","YR","02","","Algebra I 213","205","26"
"213","YR","03","","Algebra I 213","298","26"
"213Lec","YR","01","","Alg I Lec 213","255","75"
"213P","YR","01","","Alg. I Plan 213","255","400"
"222","YR","01","","Geometry 222","220","26"
"222","YR","02","","Geometry 222","205","26"
"222","YR","03","","Geometry 222","220","26"
"222","YR","04","","Geometry 222","220","26"
"222","YR","05","","Geometry 222","205","26"
"222Lec","YR","01","","Geom Lec 222","205","300"
"222ALec","YR","01","","Geometry 222A Lec","205","150"
"222A","YR","01","","Geometry 222A","205","25"
"222A","YR","02","","Geometry 222A","205","25"
"222A","YR","03","","Geometry 222A","205","25"
"222AT","YR","01","","222A Proc","125","400"
"224Lec","YR","01","","Geom Lec 224","220","100"
"224","YR","01","","Geometry 224","220","25"
"224","YR","02","","Geometry 224","220","25"
"224","YR","03","","Geometry 224","220","25"
"224T","YR","01","","224 Proc","529","400"
"226","YR","01","","Hn. Geometry 226","250","28"
"226","YR","02","","Hn. Geometry 226","250","28"
"226Lec","YR","01","","Hon Geom Lec 226","250","100"
"232","YR","01","","Algebra II 232","266","26"
"232","YR","02","","Algebra II 232","230","26"
"232","YR","03","","Algebra II 232","266","26"
"232","YR","04","","Algebra II 232","250","26"
"232","YR","05","","Algebra II 232","266","26"
"232","YR","06","","Algebra II 232","250","26"
"232Lec","YR","01","","Alg. II Lec 232","250","200"
"232P","YR","01","","Alg. II Plan 232","250","400"
"234","YR","01","","Algebra II 234","212","25"
"234","YR","02","","Algebra II 234","212","25"
"234","YR","03","","Algebra II 234","212","25"
"234Lec","YR","01","","Alg. II Lec 234","212","100"
"234T","YR","01","","234 Proc","298","400"
"236","YR","01","","HnAlgebra II 236","201","28"
"236","YR","02","","HnAlgebra II 236","201","28"
"236","YR","03","","HnAlgebra II 236","201","28"
"236Lec","YR","01","","HnAlg II Lec 236","201","100"
"236T","YR","01","","236 Proc","143","400"
"241","YR","01","","PreCalculus 241","293","26"
"241","YR","02","","PreCalculus 241","293","26"
"241","YR","03","","PreCalculus 241","266","26"
"241","YR","04","","PreCalculus 241","202","26"
"241","YR","05","","PreCalculus 241","293","26"
"241","YR","06","","PreCalculus 241","245","26"
"241Lec","YR","01","","PreCalc Lec 241","245","300"
"241P","YR","01","","PreCalc Pln  241","245","400"
"243","YR","01","","PreCalc 243","202","25"
"243","YR","02","","PreCalc 243","202","25"
"243Lec","YR","01","","PreCalc 243 Lec","202","100"
"244","YR","01","","FiniteMa/Trig244","266","26"
"244","YR","02","","FiniteMa/Trig244","266","26"
"244T","YR","01","","244 Proc","201","400"
"244Lec","YR","01","","FiniteMth Lec244","266","60"
"245","YR","01","","Hn PreCalc 245","298","28"
"245","YR","02","","Hn PreCalc 245","298","28"
"245","YR","03","","Hn PreCalc 245","298","28"
"245","YR","04","","Hn PreCalc 245","200","28"
"245Lec","YR","01","","H PreCalc Lec245","200","100"
"250","YR","01","","Statistics 250","201","25"
"250","YR","02","","Statistics 250","201","25"
"250Lec","YR","01","","Stat 250 Lecture","201","60"
"251","YR","01","","AP Statistics 251","201","25"
"258","YR","01","","Diff Eq and Lin Al","293","25"
"261Lec","YR","01","","Hon Calc Lec 261","212","100"
"261","YR","01","","Hon Calculus 261","212","26"
"261","YR","02","","Hon Calculus 261","212","26"
"261","YR","03","","Hon Calculus 261","212","26"
"261T","YR","01","","261 Proc","270","400"
"263","YR","01","","AP Calculus AB 263","298","26"
"263","YR","02","","AP Calculus AB 263","298","26"
"263Lec","YR","01","","AP Calc AB Lec","298","75"
"265","YR","01","","AP Calculus BC 265","293","25"
"268","YR","01","","Hn Mltvrb Calculus","293","25"
"270","YR","01","","Intr Engineering","385","25"
"271","YR","01","","Hon Programming","255","24"
"285","YR","01","","AP Computer Prog","255","20"
"305","YR","01","","Hon Biology  305","350","27"
"305","YR","02","","Hon Biology  305","372","27"
"305","YR","03","","Hon Biology  305","350","27"
"305","YR","04","","Hon Biology  305","350","27"
"305Lec","YR","01","","Hon. Bio Lec","350","100"
"305P","YR","01","","Hon Bio 305 Plan","350","400"
"312","YR","01","","Biology 312","372","24"
"312","YR","02","","Biology 312","396","24"
"312","YR","03","","Biology 312","396","24"
"312","YR","04","","Biology 312","316","24"
"312","YR","05","","Biology 312","396","24"
"312","YR","06","","Biology 312","372","24"
"312","YR","07","","Biology 312","372","24"
"312A","YR","01","","Biology 312A","315","24"
"312A","YR","02","","Biology 312A","315","24"
"312A","YR","03","","Biology 312A","315","24"
"312ALec","YR","01","","Biology Lec 312A","315","100"
"312Lec","YR","01","","Biology Lec. 312","316","300"
"312P01","YR","01","","312 Plan","316","400"
"314","YR","01","","Biology 314","316","24"
"314","YR","02","","Biology 314","316","24"
"314","YR","03","","Biology 314","316","24"
"314Lec","YR","01","","Biology Lec 314","316","100"
"314T","YR","01","","314 Proc","315","400"
"326Lec","YR","01","","Chem Lec 10 326","315","200"
"326","YR","01","","Chemistry 10 326","372","24"
"326","YR","02","","Chemistry 10 326","315","24"
"326","YR","03","","Chemistry 10 326","315","24"
"326","YR","04","","Chemistry 10 326","318","24"
"326","YR","05","","Chemistry 10 326","372","24"
"326","YR","06","","Chemistry 10 326","318","24"
"326","YR","07","","Chemistry 10 326","318","24"
"326","YR","08","","Chemistry 10 326","318","24"
"326P","YR","01","","326 Chem Plan","315","400"
"327Lec","YR","01","","Chem Lec 10 327","318","200"
"327","YR","01","","Chemistry 10 327","320","24"
"327","YR","02","","Chemistry 10 327","320","24"
"327","YR","03","","Chemistry 10 327","320","24"
"327","YR","04","","Chemistry 10 327","318","24"
"327P","YR","01","","Chem 327 Plan","318","400"
"335","YR","01","","Hn Chemistry 335","320","24"
"335","YR","02","","Hn Chemistry 335","320","24"
"335Lec","YR","01","","Hn Chem Lec 335","320","400"
"341","YR","01","","Physics 341","381","24"
"341","YR","02","","Physics 341","381","24"
"341","YR","03","","Physics 341","381","24"
"341","YR","04","","Physics 341","381","24"
"341","YR","05","","Physics 341","385","24"
"341","YR","06","","Physics 341","385","24"
"341","YR","07","","Physics 341","385","24"
"341Lec","YR","01","","Physics Lec 341","381","200"
"341P","YR","01","","341 Phys Plan","381","400"
"343","YR","01","","Physics 343","350","24"
"343","YR","02","","Physics 343","350","24"
"343","YR","03","","Physics 343","385","24"
"343","YR","04","","Physics 343","385","24"
"343Lec","YR","01","","Physics Lec 343","350","100"
"344Lec","YR","01","","H Physics Lec344","325","50"
"344","YR","01","","Hon Physics  344","325","25"
"344","YR","02","","Hon Physics  344","325","25"
"345I","YR","01","","AP Physics I","381","25"
"345I","YR","02","","AP Physics I","381","25"
"345ILec","YR","01","","AP I Lecture","381","50"
"345IT1","YR","01","","345I Proc","150","400"
"345IT2","YR","01","","345I Proc","320","400"
"345","YR","01","","AP Physics II","325","15"
"347","YR","01","","Marine Biology","327","25"
"347","YR","02","","Marine Biology","327","25"
"348","YR","01","","Earth Sci 348","316","24"
"348","YR","02","","Earth Sci 348","316","24"
"348Lec","YR","01","","Earth Sci Lec","316","70"
"348T","YR","01","","348 Proc","805","400"
"350","YR","01","","Anatomy & Phys","315","25"
"351","YR","01","","Hon Anatomy 351","396","19"
"365","YR","01","","AP Biology 365","350","21"
"375","YR","01","","AP Chemistry","318","24"
"380","YR","01","","AP Enviro Sci","396","24"
"380","YR","02","","AP Enviro Sci","396","24"
"380Lec","YR","01","","AP Envrnmntl Lec","396","60"
"395","YR","01","","Forensic Science","325","400"
"411","YR","01","","World Hist I 411","480","26"
"411","YR","02","","World Hist I 411","403","26"
"411","YR","03","","World Hist I 411","403","26"
"411","YR","04","","World Hist I 411","480","26"
"411","YR","05","","World Hist I 411","465","26"
"411","YR","06","","World Hist I 411","403","26"
"411","YR","07","","World Hist I 411","465","26"
"411","YR","08","","World Hist I 411","465","26"
"411","YR","09","","World Hist I 411","465","26"
"411Lec","YR","01","","Wrld Hist I Lec","403","300"
"411P","YR","01","","Wrld Hst 411 Pln","403","400"
"411T","YR","01","","411 Proc","402","400"
"413","YR","01","","World Hist I 413","465","25"
"413","YR","02","","World Hist I 413","485","25"
"413","YR","03","","World Hist I 413","485","25"
"413Lec","YR","01","","Wrld Hist I Lec","465","100"
"413P","YR","01","","World 413 Plan","465","400"
"415","YR","01","","Hon Wrld Hist I","485","26"
"415","YR","02","","Hon Wrld Hist I","485","26"
"415Lec","YR","01","","HnWrld Hst I Lec","485","70"
"421","YR","01","","Wrld Hist II 421","455","25"
"421","YR","02","","Wrld Hist II 421","455","25"
"421","YR","03","","Wrld Hist II 421","455","25"
"421","YR","04","","Wrld Hist II 421","490","25"
"421","YR","05","","Wrld Hist II 421","490","25"
"421","YR","06","","Wrld Hist II 421","490","25"
"421","YR","07","","Wrld Hist II 421","490","25"
"421Lec","YR","01","","Wrld Hist II Lec","490","300"
"421P","YR","01","","WHist II 421 Pln","490","400"
"423","YR","01","","Wrld Hist II 423","402","26"
"423","YR","02","","Wrld Hist II 423","402","26"
"423","YR","03","","Wrld Hist II 423","402","26"
"423Lec","YR","01","","Wrld Hist II Lec","402","100"
"425","YR","01","","AP Wrld Hist 425","490","23"
"425","YR","02","","AP Wrld Hist 425","490","23"
"425Lec","YR","01","","AP World His Lec","490","75"
"426","YR","01","","Hon World II","485","30"
"426","YR","02","","Hon World II","485","30"
"426","YR","03","","Hon World II","485","30"
"426T","YR","01","","426 Proc","480","400"
"426Lec","YR","01","","Hon Wrld II Lec","485","70"
"431","YR","01","","U.S. History 431","400","26"
"431","YR","02","","U.S. History 431","402","26"
"431","YR","03","","U.S. History 431","402","26"
"431","YR","04","","U.S. History 431","400","26"
"431","YR","05","","U.S. History 431","403","26"
"431","YR","06","","U.S. History 431","402","26"
"431","YR","07","","U.S. History 431","400","26"
"431Lec","YR","01","","US Hist Lec 431","403","300"
"431P","YR","01","","US Hist 431 Pln","403","400"
"433","YR","01","","U.S. History 433","403","25"
"433","YR","02","","U.S. History 433","403","25"
"433","YR","03","","U.S. History 433","403","25"
"433Lec","YR","01","","US Hist Lec 433","403","75"
"433T","YR","01","","433 Proc","400","400"
"435","YR","01","","AP US Hist. 435","460","25"
"435","YR","02","","AP US Hist. 435","460","25"
"435","YR","03","","AP US Hist. 435","460","25"
"436","YR","01","","Hnrs US History","465","28"
"436","YR","02","","Hnrs US History","465","28"
"436T","YR","01","","436 Proc","480","400"
"436Lec","YR","01","","Hon 436 US Lec","465","70"
"435Lec","YR","01","","AP US His. Lec","460","75"
"441","YR","01","","Am. Govt  441","495","25"
"441","YR","02","","Am. Govt  441","495","25"
"441","YR","03","","Am. Govt  441","495","25"
"441Lec","YR","01","","Am Govt Lec 441","495","100"
"442","YR","01","","Am.Govt. 442","480","27"
"442","YR","02","","Am.Govt. 442","480","27"
"442","YR","03","","Am.Govt. 442","480","27"
"442T","YR","01","","442 Proc","402","400"
"442Lec","YR","01","","Am Govt Lec 442","480","100"
"443","YR","01","","Am.  Govt. 443","480","25"
"443","YR","02","","Am.  Govt. 443","480","25"
"443Lec","YR","01","","Am. Govt Lec 443","480","70"
"445","YR","01","","AP Government","495","25"
"455","YR","01","","AP European 455","455","20"
"465","YR","01","","AP Economics 465","473","28"
"465","YR","02","","AP Economics 465","473","28"
"465","YR","03","","AP Economics 465","473","28"
"465Lec","YR","01","","AP Economics Lec","473","75"
"465T1","YR","01","","465 Proc","316","400"
"465T2","YR","01","","465 Proc","490","400"
"470","YR","01","","AP Psychology","495","23"
"470","YR","02","","AP Psychology","495","23"
"470Lec","YR","01","","AP Psych Lec","495","75"
"471","YR","01","","Psychology 471","400","26"
"471","YR","02","","Psychology 471","400","26"
"471","YR","03","","Psychology 471","400","26"
"471Lec","YR","01","","Psychology Lec","400","100"
"475","YR","01","","AP Human Geography","400","25"
"477","YR","01","","Leadership Sem","155","20"
"477","YR","02","","Leadership Sem","155","20"
"479","YR","01","","Personal Finance","490","30"
"481","YR","01","","Business Mgmt.","473","27"
"481","YR","02","","Business Mgmt.","473","27"
"481","YR","03","","Business Mgmt.","996","27"
"481Lec","YR","01","","Business Lec","996","75"
"483","YR","01","","Accounting  483","473","25"
"483","YR","02","","Accounting  483","473","25"
"483Lec","YR","01","","Accounting Lec","473","70"
"486","YR","01","","Princip of Market","477","25"
"490","YR","01","","Comp. App I 490","299","26"
"490","YR","02","","Comp. App I 490","299","26"
"490","YR","03","","Comp. App I 490","299","26"
"490","YR","04","","Comp. App I 490","299","26"
"490","YR","05","","Comp. App I 490","299","26"
"490","YR","06","","Comp. App I 490","299","26"
"490","YR","07","","Comp. App I 490","299","26"
"490A","YR","01","","Comp. App I 490A","514","26"
"490A","YR","02","","Comp. App I 490A","514","26"
"490A","YR","03","","Comp. App I 490A","514","26"
"490A","YR","04","","Comp. App I 490A","514","26"
"490A","YR","05","","Comp. App I 490A","514","26"
"490A","YR","06","","Comp. App I 490A","514","26"
"490A","YR","07","","Comp. App I 490A","514","26"
"493","YR","01","","Comp. App I 493","299","26"
"493","YR","02","","Comp. App I 493","299","26"
"493","YR","03","","Comp. App I 493","299","26"
"493","YR","04","","Comp. App I 493","299","26"
"493","YR","05","","Comp. App I 493","299","26"
"493","YR","06","","Comp. App I 493","299","26"
"493","YR","07","","Comp. App I 493","299","26"
"493A","YR","01","","Comp. App I 493A","514","26"
"493A","YR","02","","Comp. App I 493A","514","26"
"493A","YR","03","","Comp. App I 493A","514","26"
"493A","YR","04","","Comp. App I 493A","514","26"
"493A","YR","05","","Comp. App I 493A","514","26"
"493A","YR","06","","Comp. App I 493A","514","26"
"493A","YR","07","","Comp. App I 493A","514","26"
"494","YR","01","","Comp. App I  494","299","26"
"494","YR","02","","Comp. App I  494","299","26"
"494","YR","03","","Comp. App I  494","299","26"
"494","YR","04","","Comp. App I  494","299","26"
"494","YR","05","","Comp. App I  494","299","26"
"494","YR","06","","Comp. App I  494","299","26"
"494","YR","07","","Comp. App I  494","299","26"
"494A","YR","01","","Comp. App I 494A","514","26"
"494A","YR","02","","Comp. App I 494A","514","26"
"494A","YR","03","","Comp. App I 494A","514","26"
"494A","YR","04","","Comp. App I 494A","514","26"
"494A","YR","05","","Comp. App I 494A","514","26"
"494A","YR","06","","Comp. App I 494A","514","26"
"494A","YR","07","","Comp. App I 494A","514","26"
"511","YR","01","","English I 511","509","26"
"511","YR","02","","English I 511","509","26"
"511","YR","03","","English I 511","509","26"
"511","YR","04","","English I 511","509","26"
"511","YR","05","","English I 511","575","26"
"511","YR","06","","English I 511","500","26"
"511","YR","07","","English I 511","517","26"
"511","YR","08","","English I 511","500","26"
"511","YR","09","","English I 511","509","26"
"511","YR","10","","English I 511","575","26"
"511","YR","11","","English I 511","517","26"
"511Lec","YR","01","","English I Lec.","509","320"
"511P","YR","01","","Eng. I 511 Plan","509","400"
"513","YR","01","","English I 513","529","25"
"513","YR","02","","English I 513","529","25"
"513","YR","03","","English I 513","529","25"
"513","YR","04","","English I 513","529","25"
"513Lec","YR","01","","Eng I Lec 513","529","100"
"513T","YR","01","","513 Proc","514","400"
"515Lec","YR","01","","Hn Eng  Lec 515","527","75"
"515","YR","01","","Honors English I","527","25"
"515","YR","02","","Honors English I","527","25"
"515","YR","03","","Honors English I","527","25"
"521","YR","01","","English II 521","515","26"
"521","YR","02","","English II 521","515","26"
"521","YR","03","","English II 521","525","26"
"521","YR","04","","English II 521","940","26"
"521","YR","05","","English II 521","525","26"
"521","YR","06","","English II 521","550","26"
"521","YR","07","","English II 521","515","26"
"521","YR","08","","English II 521","940","26"
"521Lec","YR","01","","Engl II Lec 521","940","320"
"521P","YR","01","","Eng. 521 Plan","940","400"
"523","YR","01","","English II 523","530","23"
"523","YR","02","","English II 523","530","23"
"523","YR","03","","English II 523","530","23"
"523","YR","04","","English II 523","299","23"
"523Lec","YR","01","","Eng II Lec 523","530","75"
"523P","YR","01","","Plan 523","530","400"
"525","YR","01","","HnEnglish II 525","529","25"
"525","YR","02","","HnEnglish II 525","529","25"
"525Lec","YR","01","","Hn. Eng II Lec","529","75"
"531","YR","01","","English III 531","517","26"
"531","YR","02","","English III 531","517","26"
"531","YR","03","","English III 531","530","26"
"531","YR","04","","English III 531","575","26"
"531","YR","05","","English III 531","517","26"
"531","YR","06","","English III 531","530","26"
"531","YR","07","","English III 531","575","26"
"531","YR","08","","English III 531","575","26"
"531","YR","09","","English III 531","575","26"
"531Lec","YR","01","","English III Lec","517","320"
"531P","YR","01","","Eng. III 531 Pln","517","400"
"533","YR","01","","English III 533","515","26"
"533","YR","02","","English III 533","515","26"
"533","YR","03","","English III 533","515","26"
"533T","YR","01","","533 Proct","125","400"
"533Lec","YR","01","","English III Lec","515","100"
"535","YR","01","","Hon English III","940","25"
"535","YR","02","","Hon English III","940","25"
"535","YR","03","","Hon English III","940","25"
"535Lec","YR","01","","Hon. Eng III Lec","940","75"
"541","YR","01","","English IV  541","500","25"
"541","YR","02","","English IV  541","500","25"
"541","YR","03","","English IV  541","514","25"
"541","YR","04","","English IV  541","517","25"
"541","YR","05","","English IV  541","525","25"
"541","YR","06","","English IV  541","120","25"
"541","YR","07","","English IV  541","500","25"
"541","YR","08","","English IV  541","500","25"
"541","YR","09","","English IV  541","120","25"
"541Lec","YR","01","","Eng. IV Lec 541","517","300"
"541P","YR","01","","Eng. 541 Plan","517","400"
"543","YR","01","","English IV 543","525","25"
"543","YR","02","","English IV 543","525","25"
"543","YR","03","","English IV 543","525","25"
"543Lec","YR","01","","English 543 Lec","525","75"
"545","YR","01","","AP English","940","25"
"565Lec","YR","01","","Hn Wrld Lit Lec","527","75"
"565","YR","01","","Hn World Lit565","527","25"
"565","YR","02","","Hn World Lit565","527","25"
"565","YR","03","","Hn World Lit565","527","25"
"566","YR","01","","African Am Lit","509","20"
"600","YR","01","","Hon Latin 600","455","25"
"600","YR","02","","Hon Latin 600","455","25"
"600L","YR","01","","Honors Latin I Lec","455","400"
"610","YR","01","","Latin I 610","630","28"
"612","YR","01","","French I 612","602","26"
"614","YR","01","","German I 614","650","25"
"614H","YR","01","","Hnrs German I","650","25"
"616","YR","01","","Hon Spanish I","670","25"
"616","YR","02","","Hon Spanish I","670","25"
"617","YR","01","","Spanish I 617","675","25"
"617","YR","02","","Spanish I 617","601","25"
"617","YR","03","","Spanish I 617","601","25"
"617","YR","04","","Spanish I 617","675","25"
"617","YR","05","","Spanish I 617","675","25"
"617P","YR","01","","Spanish I Plan","601","400"
"618","YR","01","","Spanish I 618","605","24"
"618","YR","02","","Spanish I 618","635","24"
"618","YR","03","","Spanish I 618","605","24"
"618","YR","04","","Spanish I 618","605","24"
"618P","YR","01","","Span 618 Plan","635","400"
"620","YR","01","","Latin II 620","630","23"
"625","YR","01","","Honors Latin II","630","25"
"621","YR","01","","Honors French II","602","25"
"622","YR","01","","French II 622","602","25"
"623","YR","01","","Hon. German II","650","25"
"624","YR","01","","German II 624","650","25"
"626","YR","01","","Hon Spanish II","601","27"
"626","YR","02","","Hon Spanish II","601","27"
"627","YR","01","","Spanish II 627","670","25"
"627","YR","02","","Spanish II 627","610","25"
"627","YR","03","","Spanish II 627","610","25"
"627","YR","04","","Spanish II 627","670","25"
"627","YR","05","","Spanish II 627","670","25"
"627","YR","06","","Spanish II 627","670","25"
"627P","YR","01","","Span. II 627 Pln","670","400"
"628P","YR","01","","Spanish Pln 628","635","25"
"628","YR","01","","Spanish II 628","635","25"
"628","YR","02","","Spanish II 628","635","25"
"628","YR","03","","Spanish II 628","635","25"
"628","YR","04","","Spanish II 628","610","25"
"630","YR","01","","Latin III 630","630","25"
"631","YR","01","","Hon. French III","675","25"
"632","YR","01","","French III 632","675","25"
"633","YR","01","","Hon. German III","650","25"
"634","YR","01","","German III","650","25"
"635","YR","01","","Hn Latin III","630","25"
"635","YR","02","","Hn Latin III","630","25"
"636P","YR","01","","Hn Span III Plan","660","400"
"636","YR","01","","Hon. Span III","660","25"
"636","YR","02","","Hon. Span III","680","25"
"637","YR","01","","Spanish III","680","25"
"637","YR","02","","Spanish III","680","25"
"637","YR","03","","Spanish III","680","25"
"637","YR","04","","Spanish III","601","25"
"637","YR","05","","Spanish III","601","25"
"637P","YR","01","","Span III 637 Pln","601","400"
"638","YR","01","","Conv Span III","610","25"
"638","YR","02","","Conv Span III","610","25"
"641","YR","01","","Hon. French IV","675","15"
"642","YR","01","","French IV 642","675","400"
"643","YR","01","","Honors German IV","650","12"
"644","YR","01","","German IV 644","650","15"
"645","YR","01","","Hn Latin IV 645","630","25"
"646","YR","01","","Hon. Spanish IV","680","25"
"647","YR","01","","Spanish IV 647","660","25"
"647","YR","02","","Spanish IV 647","660","25"
"647","YR","03","","Spanish IV 647","660","25"
"648","YR","01","","Span for Communc","610","25"
"651","YR","01","","AP French 651","675","15"
"656","YR","01","","AP Spanish","680","15"
"657","YR","01","","Spanish V","660","400"
"658","YR","01","","Hon Spanish V","660","400"
"664","YR","01","","Hon. German V","650","10"
"694","YR","01","","Mandarin Chinese I","635","20"
"695","YR","01","","Mand Chinese II","635","20"
"694H","YR","01","","Hnrs Mand Chinese","635","25"
"695H","YR","01","","Hnrs Mand Chin II","635","25"
"700A","YR","01","","Band A","720","60"
"700B","YR","01","","Band B","760","60"
"700C","YR","01","","Band C","795","60"
"702A","YR","01","","Woodwinds A","720","16"
"702B","YR","01","","Woodwinds B","720","16"
"702C","YR","01","","Woodwinds C","720","16"
"702D","YR","01","","Woodwinds D","760","10"
"702E","YR","01","","Woodwind E","760","10"
"702F","YR","01","","Woodwinds F","760","10"
"702G","YR","01","","Woodwinds G","795","10"
"702H","YR","01","","Woodwinds H","795","10"
"703A","YR","01","","Strings A","760","10"
"703B","YR","01","","Strings B","760","10"
"703C","YR","01","","Strings C","760","10"
"703D","YR","01","","Strings D","760","10"
"705A","YR","01","","Trmpt/Fr Hrn A","720","10"
"705B","YR","01","","Trumpet/Horn B","720","10"
"705C","YR","01","","Trumpet/Horn C","720","10"
"705D","YR","01","","Trumpet/Horn D","720","10"
"707A","YR","01","","Low Brass A","720","10"
"707B","YR","01","","Low Brass B","720","10"
"707C","YR","01","","Low Brass C","760","10"
"707D","YR","01","","Low Brass D","760","10"
"708A","YR","01","","Percussion A","795","15"
"708B","YR","01","","Percussion B","795","15"
"708C","YR","01","","Percussion C","795","15"
"710","YR","01","","Fund of Music","760","21"
"710","YR","02","","Fund of Music","760","21"
"710","YR","03","","Fund of Music","760","21"
"710S","YR","01","","Fund of Music St","760","15"
"710D","YR","01","","Fund of Music Per","795","10"
"711","YR","01","","Fnd Music Theory","720","15"
"712","YR","01","","Jazz Theor Impro","720","15"
"714","YR","01","","AP Music Theory","0","15"
"716","YR","01","","History of Jazz","795","60"
"716","YR","02","","History of Jazz","795","60"
"716","YR","03","","History of Jazz","795","60"
"717","YR","01","","Hist Rock & Roll","712","25"
"717","YR","02","","Hist Rock & Roll","712","25"
"717","YR","03","","Hist Rock & Roll","712","25"
"718","YR","01","","Intro to Music","712","16"
"718","YR","02","","Intro to Music","712","16"
"718","YR","03","","Intro to Music","712","16"
"720","YR","01","","Guitar","712","17"
"720","YR","02","","Guitar","712","17"
"721","YR","01","","Intermd Guitar","670","10"
"730","YR","01","","Hallmen Chorus","712","60"
"736","YR","01","","Vocal Ensemble","712","15"
"737","YR","01","","Madrigal Ensmble","712","15"
"740A","YR","01","","Jazz A","720","60"
"740B","YR","01","","Jazz B","760","60"
"740C","YR","01","","Jazz C","795","60"
"740S","YR","01","","Jazz Combo","720","15"
"742","YR","01","","Brass Ensemble","720","15"
"744","YR","01","","Woodwind Ensembl","720","15"
"746","YR","01","","String Ensemble","760","20"
"748","YR","01","","Percussion Ensembl","795","15"
"750A","YR","01","","Rhythm section A","720","15"
"750B","YR","01","","Rhythm Section B","760","10"
"750 C","YR","01","","Rhythm Secion C","795","15"
"751","YR","01","","Basic Art","755","15"
"753","YR","01","","Intr Graph Design","755","20"
"753","YR","02","","Intr Graph Design","755","20"
"761","YR","01","","Adv. Painting","755","13"
"761","YR","02","","Adv. Painting","755","13"
"771","YR","01","","Sculpture/Design","755","15"
"775","YR","01","","Fund of Art","755","20"
"791","YR","01","","AP Art","705","15"
"811","YR","01","","PE. I/Health 811","805","26"
"811","YR","02","","PE. I/Health 811","830","26"
"811","YR","03","","PE. I/Health 811","805","26"
"811","YR","04","","PE. I/Health 811","830","26"
"811","YR","05","","PE. I/Health 811","805","26"
"811","YR","06","","PE. I/Health 811","830","26"
"811","YR","07","","PE. I/Health 811","805","26"
"811A","YR","01","","Health/PE I 811A","810","26"
"811A","YR","02","","Health/PE I 811A","810","26"
"811A","YR","03","","Health/PE I 811A","810","26"
"811A","YR","04","","Health/PE I 811A","810","26"
"811A","YR","05","","Health/PE I 811A","810","26"
"811A","YR","06","","Health/PE I 811A","810","26"
"811A","YR","07","","Health/PE I 811A","810","26"
"812","YR","01","","PE. I/Health 812","805","26"
"812","YR","02","","PE. I/Health 812","830","26"
"812","YR","03","","PE. I/Health 812","805","26"
"812","YR","04","","PE. I/Health 812","830","26"
"812","YR","05","","PE. I/Health 812","805","26"
"812","YR","06","","PE. I/Health 812","830","26"
"812","YR","07","","PE. I/Health 812","805","26"
"812A","YR","01","","Health/PE I 812A","810","26"
"812A","YR","02","","Health/PE I 812A","810","26"
"812A","YR","03","","Health/PE I 812A","810","26"
"812A","YR","04","","Health/PE I 812A","810","26"
"812A","YR","05","","Health/PE I 812A","810","26"
"812A","YR","06","","Health/PE I 812A","810","26"
"812A","YR","07","","Health/PE I 812A","810","26"
"813","YR","01","","PE. I/Health 813","805","26"
"813","YR","02","","PE. I/Health 813","830","26"
"813","YR","03","","PE. I/Health 813","805","26"
"813","YR","04","","PE. I/Health 813","830","26"
"813","YR","05","","PE. I/Health 813","805","26"
"813","YR","06","","PE. I/Health 813","830","26"
"813","YR","07","","PE. I/Health 813","805","26"
"813A","YR","01","","Health/PE I 813A","810","26"
"813A","YR","02","","Health/PE I 813A","810","26"
"813A","YR","03","","Health/PE I 813A","810","26"
"813A","YR","04","","Health/PE I 813A","810","26"
"813A","YR","05","","Health/PE I 813A","810","26"
"813A","YR","06","","Health/PE I 813A","810","26"
"813A","YR","07","","Health/PE I 813A","810","26"
"821","YR","01","","Phys Ed II 821","805","44"
"821","YR","02","","Phys Ed II 821","805","44"
"821","YR","03","","Phys Ed II 821","805","44"
"821","YR","04","","Phys Ed II 821","805","44"
"821","YR","05","","Phys Ed II 821","805","44"
"821","YR","06","","Phys Ed II 821","805","44"
"821","YR","07","","Phys Ed II 821","805","44"
"822","YR","01","","Phys Ed. II 822","805","44"
"822","YR","02","","Phys Ed. II 822","805","44"
"822","YR","03","","Phys Ed. II 822","805","44"
"822","YR","04","","Phys Ed. II 822","805","44"
"822","YR","05","","Phys Ed. II 822","805","44"
"822","YR","06","","Phys Ed. II 822","805","44"
"822","YR","07","","Phys Ed. II 822","805","44"
"901","YR","01","","Humanities I","415","25"
"903","YR","01","","McMullen Capstone","455","22"
"907","YR","01","","Learning Center","0","60"
"900","YR","01","","Cafe Proctor","795","400"
"900","YR","02","","Cafe Proctor","830","400"
"900","YR","03","","Cafe Proctor","400","400"
"900","YR","04","","Cafe Proctor","805","400"
"900","YR","05","","Cafe Proctor","515","400"
"900","YR","06","","Cafe Proctor","795","400"
"900","YR","07","","Cafe Proctor","575","400"
"900","YR","08","","Cafe Proctor","795","400"
"900","YR","09","","Cafe Proctor","050","400"
"900","YR","10","","Cafe Proctor","940","400"
"900","YR","11","","Cafe Proctor","495","400"
"900","YR","12","","Cafe Proctor","755","400"
"900","YR","13","","Cafe Proctor","025","400"
"900","YR","14","","Cafe Proctor","795","400"
"900","YR","15","","Cafe Proctor","509","400"
"900","YR","16","","Cafe Proctor","795","400"
"900","YR","17","","Cafe Proctor","514","400"
"900","YR","18","","Cafe Proctor","509","400"
"900","YR","19","","Cafe Proctor","509","400"
"900","YR","20","","Cafe Proctor","805","400"
"900","YR","21","","Cafe Proctor","515","400"
"900","YR","22","","Cafe Proctor","830","400"
"900","YR","23","","Cafe Proctor","509","400"
"900","YR","24","","Cafe Proctor","795","400"
"900","YR","25","","Cafe Proctor","830","400"
"900","YR","26","","Cafe Proctor","755","400"
"900","YR","27","","Cafe Proctor","143","400"
"900","YR","28","","Cafe Proctor","245","400"
"900","YR","29","","Cafe Proctor","720","400"
"900","YR","30","","Cafe Proctor","795","400"
"900","YR","31","","Cafe Proctor","760","400"
"900","YR","32","","Cafe Proctor","178","400"
"900","YR","33","","Cafe Proctor","490","400"
"900","YR","34","","Cafe Proctor","299","400"
"900","YR","35","","Cafe Proctor","500","400"
"900","YR","36","","Cafe Proctor","805","400"
"920","YR","01","","Math Resource","205","400"
"920","YR","02","","Math Resource","298","400"
"920","YR","03","","Math Resource","220","400"
"920","YR","04","","Math Resource","270","400"
"920","YR","05","","Math Resource","212","400"
"920","YR","06","","Math Resource","250","400"
"920","YR","07","","Math Resource","250","400"
"920","YR","08","","Math Resource","205","400"
"920","YR","09","","Math Resource","266","400"
"920","YR","10","","Math Resource","270","400"
"920","YR","11","","Math Resource","201","400"
"920","YR","12","","Math Resource","230","400"
"920","YR","13","","Math Resource","270","400"
"920","YR","14","","Math Resource","220","400"
"920","YR","15","","Math Resource","212","400"
"920","YR","16","","Math Resource","202","400"
"920","YR","17","","Math Resource","205","400"
"920","YR","18","","Math Resource","212","400"
"920","YR","19","","Math Resource","266","400"
"920","YR","20","","Math Resource","270","400"
"920","YR","21","","Math Resource","255","400"
"920","YR","22","","Math Resource","202","400"
"920","YR","23","","Math Resource","220","400"
"920","YR","24","","Math Resource","250","400"
"920","YR","25","","Math Resource","270","400"
"920","YR","26","","Math Resource","212","400"
"920","YR","27","","Math Resource","212","400"
"9540","YR","01","","Cafe 7th","795","400"
"9540","YR","02","","Cafe 7th","830","400"
"9540","YR","03","","Cafe 7th","760","400"
"9540","YR","04","","Cafe 7th","473","400"
"9540","YR","05","","Cafe 7th","805","400"
"9540","YR","06","","Cafe 7th","830","400"
"9650","YR","01","","MRC 7th","201","400"
"9650","YR","02","","MRC 7th","270","400"
"9650","YR","03","","MRC 7th","250","400"
"9650","YR","04","","MRC 7th","298","400"
"9650","YR","05","","MRC 7th","201","400"
"966","YR","01","","Acad Res 7th","517","400"
"966","YR","02","","Acad Res 7th","316","400"
"966","YR","03","","Acad Res 7th","525","400"
"966","YR","04","","Acad Res 7th","396","400"
"966","YR","05","","Acad Res 7th","529","400"
"966","YR","06","","Acad Res 7th","316","400"
"985","YR","01","","Peer Ed/Advisory","952","25"
"985","YR","02","","Peer Ed/Advisory","952","25"
"985","YR","03","","Peer Ed/Advisory","952","25"
"985","YR","04","","Peer Ed/Advisory","952","25"
"985","YR","05","","Peer Ed/Advisory","952","25"
"985","YR","06","","Peer Ed/Advisory","952","25"
"985","YR","07","","Peer Ed/Advisory","952","25"
"985","YR","08","","Peer Ed/Advisory","952","25"
"985","YR","09","","Peer Ed/Advisory","952","25"
"985","YR","10","","Peer Ed/Advisory","952","25"
"985","YR","11","","Peer Ed/Advisory","952","25"
"985","YR","12","","Peer Ed/Advisory","952","25"
"985","YR","13","","Peer Ed/Advisory","952","25"
"985","YR","14","","Peer Ed/Advisory","952","25"
"985","YR","15","","Peer Ed/Advisory","952","25"
"985","YR","16","","Peer Ed/Advisory","952","25"
"986","YR","01","","Guidance Pgm 10","135","26"
"986","YR","02","","Guidance Pgm 10","135","26"
"986","YR","03","","Guidance Pgm 10","135","26"
"986","YR","04","","Guidance Pgm 10","135","26"
"986","YR","05","","Guidance Pgm 10","135","26"
"986","YR","06","","Guidance Pgm 10","135","26"
"986","YR","07","","Guidance Pgm 10","135","26"
"986","YR","08","","Guidance Pgm 10","135","26"
"986","YR","09","","Guidance Pgm 10","135","26"
"986","YR","10","","Guidance Pgm 10","135","26"
"986","YR","11","","Guidance Pgm 10","135","26"
"986","YR","12","","Guidance Pgm 10","135","26"
"986","YR","13","","Guidance Pgm 10","135","26"
"986","YR","14","","Guidance Pgm 10","135","26"
"995","YR","01","","Acad Resource","500","400"
"995","YR","02","","Acad Resource","495","400"
"995","YR","03","","Acad Resource","490","400"
"995","YR","04","","Acad Resource","515","400"
"995","YR","05","","Acad Resource","150","400"
"995","YR","06","","Acad Resource","316","400"
"995","YR","07","","Acad Resource","485","400"
"995","YR","08","","Acad Resource","325","400"
"995","YR","09","","Acad Resource","480","400"
"995","YR","10","","Acad Resource","575","400"
"995","YR","11","","Acad Resource","529","400"
"995","YR","12","","Acad Resource","920","400"
"995","YR","13","","Acad Resource","465","400"
"995","YR","14","","Acad Resource","315","400"
"995","YR","15","","Acad Resource","135","400"
"995","YR","16","","Acad Resource","245","400"
"995","YR","17","","Acad Resource","952","400"
"995","YR","18","","Acad Resource","527","400"
"995","YR","19","","Acad Resource","527","400"
"995","YR","20","","Acad Resource","143","400"
"995","YR","21","","Acad Resource","529","400"
"995","YR","22","","Acad Resource","940","400"
"995","YR","23","","Acad Resource","320","400"
"995","YR","24","","Acad Resource","500","400"
"995","YR","25","","Acad Resource","490","400"
"995","YR","26","","Acad Resource","527","400"
"995","YR","27","","Acad Resource","495","400"
"995","YR","28","","Acad Resource","955","400"
"995","YR","29","","Acad Resource","525","400"
"995","YR","30","","Acad Resource","473","400"
"995","YR","31","","Acad Resource","403","400"
"995","YR","32","","Acad Resource","527","400"
"995","YR","33","","Acad Resource","125","400"
"995","YR","34","","Acad Resource","950","400"
"995","YR","35","","Acad Resource","495","400"
"995","YR","36","","Acad Resource","575","400"
"996A","YR","01","","Jr College Adv","931","26"
"996A","YR","02","","Jr College Adv","931","26"
"996A","YR","03","","Jr College Adv","931","26"
"996A","YR","04","","Jr College Adv","931","26"
"996A","YR","05","","Jr College Adv","931","26"
"996A","YR","06","","Jr College Adv","931","26"
"996K","YR","01","","Jr College Adv","930","26"
"996K","YR","02","","Jr College Adv","930","26"
"996K","YR","03","","Jr College Adv","930","26"
"996K","YR","04","","Jr College Adv","930","26"
"996K","YR","05","","Jr College Adv","930","26"
"996K","YR","06","","Jr College Adv","930","26"
"996V","YR","01","","Jr College Adv","990","26"
"996V","YR","02","","Jr College Adv","990","26"
"996V","YR","03","","Jr College Adv","990","26"
"996V","YR","04","","Jr College Adv","990","26"
"996V","YR","05","","Jr College Adv","990","26"
"997A","YR","01","","Sr. College Adv","931","26"
"997A","YR","02","","Sr. College Adv","931","26"
"997A","YR","03","","Sr. College Adv","931","26"
"997A","YR","04","","Sr. College Adv","931","26"
"997A","YR","05","","Sr. College Adv","931","26"
"997A","YR","06","","Sr. College Adv","931","26"
"997K","YR","01","","Sr College Adv","930","26"
"997K","YR","02","","Sr College Adv","930","26"
"997K","YR","03","","Sr College Adv","930","26"
"997K","YR","04","","Sr College Adv","930","26"
"997K","YR","05","","Sr College Adv","930","26"
"997K","YR","06","","Sr College Adv","930","26"
"997V","YR","01","","Sr College Adv","990","26"
"997V","YR","02","","Sr College Adv","990","26"
"997V","YR","03","","Sr College Adv","990","26"
"997V","YR","04","","Sr College Adv","990","26"
"997V","YR","05","","Sr College Adv","990","26"
"997V","YR","06","","Sr College Adv","990","26"
"997V","YR","07","","Sr College Adv","990","26"
"998","YR","01","","Jr McMul Col Adv","990","26"
"998","YR","02","","Jr McMul Col Adv","990","26"
"998","YR","03","","Jr McMul Col Adv","990","26"
"998F","YR","01","","Internat Sem","490","15"
